{

    "COUNTY_ASSESSMENT_AND_RESPONSE_PLAN": {
        "id_county_of_residence": {
            "title": "Demographics",
            "subtitle": null
        },
        "id_brc_target_pop": {
            "title": "PPS"
        },
        "id_place_of_service": {
            "title": "Billing"
        },

        "id_contact_name": {
            "title": "Supports"
        },
        "id_rights_informed": {
            "title": "Rights and Grievance"
        },

        "id_mandated_reporting": {
            "title": "Mandated Reporting"
        },
        "id_was_interviewed": {
            "title": "Assessment"
        },
        "id_cs_scale_wish_dead" : {
            "title": "Safety Assessment & CSSRS"
        },
        "id_cs_scale_thoughts_someone_else": {
            "title": null,
            "subtitle": "HOMICIDALITY / SELF-INJURY / LETHAL MEANS"
        },
        "id_ori_alert": {
            "title": "Mental Status",
            "subtitle": "Orientation"
        },
        "id_speech_rapid": {
            "title": null,
            "subtitle": "Speech"
        },
        "id_thought_delusions": {
            "title": null,
            "subtitle": "Thought Content/Processes"
        },
        "id_mood_depressed": {
            "title": null,
            "subtitle": "Mood"
        },
        "id_behave_cooperative": {
            "title": null,
            "subtitle": "Behavior"
        },
        "id_intel_below_avg": {
            "title": null,
            "subtitle": "Intellectual functioning"
        },
        "id_insight_good": {
            "title": null,
            "subtitle": "Insight"
        },
        "id_judgement_good": {
            "title": null,
            "subtitle": "Judgement"
        },
        "id_summary_of_assessment": {
            "title": "Summary of Assessment"
        },
        "id_rp_outcome": {
            "title": "Response Plan"
        },

        "id_linked_docs": {
            "title": "Linked Documents",
            "subtitle": null
        },
        "finalize_form": {
            "title": "Finalize",
            "subtitle": null
        }




    },

    "NWC_ASSESSMENT_AND_RESPONSE_PLAN": {
        "id_date": {
            "title": "Contact Summary Details",
            "subtitle": null
        },

        "id_place_of_service": {
            "title": "Billing",
            "subtitle": null
        },

        "id_brc_target_pop": {
            "title": "PPS",
            "subtitle": null
        },

        "id_note": {
            "title": "Note"
        },

        "finalize_form": {
            "title": "Finalize",
            "subtitle": null
        }
    },

    "NWC_NOTE": {
        "id_date": {
            "title": "Contact Summary Details"
        },
        "id_place_of_service": {
            "title": "Billing"
        },
        "id_brc_target_pop": {
            "title": "PPS"
        },

        "id_linked_docs": {
            "title": "Linked Documents"
        },

        "finalize_form": {
            "title": "Finalize",
            "subtitle": null
        }

    },

    "OOC_ASSESSMENT_AND_RESPONSE_PLAN": {
        "id_date": {
            "title": "Contact Summary Details",
            "subtitle": null
        },

        "id_place_of_service": {
            "title": "Billing",
            "subtitle": null
        },

        "id_brc_target_pop": {
            "title": "PPS",
            "subtitle": null
        },

        "id_note": {
            "title": "Note"
        },

        "finalize_form": {
            "title": "Finalize",
            "subtitle": null
        }
    },

    "CLINIC_WAIT_LIST": {
        "finalize_form": {
            "title": "Finalize",
            "subtitle": null
        }
    },

    "CLTS_ASSESSMENT": {
        "id_assessment_date": {
            "title": "Assessment Description & Background Information",
            "subtitle": null,
            "reportHide": false
        },

        "id_strengths_needs_social": {
            "title": "Social Functioning",
            "subtitle": null
        },

        "id_current_health": {
            "title": "Medical & Physical",
            "subtitle": null
        },

        "id_bathing_grooming": {
            "title": "Activities of Daily Living",
            "subtitle": null
        },

        "id_emo_behave": {
            "title": "Emotional & Behavioral",
            "subtitle": "Identify behaviors, any mental health challenges, and risks"
        },

        "id_cognitive_testing": {
            "title": "Cognitive Functioning",
            "subtitle": null
        },

        "id_school": {
            "title": "Education & Employment",
            "subtitle": null
        },

        "id_current_services_and_needs": {
            "title": "Current Services and Supports & Needs",
            "subtitle": "Services & supports receiving or need examples; supplements, adaptive aides, home modification, specialized medical therapeutic supplies, therapies etc."
        },

        "id_living_and_daily": {
            "title": "Personal Preferences",
            "subtitle": null
        },

        "id_addtl_information": {
            "title": "Additional Information",
            "subtitle": null
        },

        "id_linked_docs": {
            "title": "Linked Documents",
            "subtitle": null
        },

        "finalize_form": {
            "title": "Finalize",
            "subtitle": null
        }
    },


    "CRISIS_ASSESSMENT": {
        "id_date": {
            "title": "Service Summary",
            "subtitle": null
        },

        "id_county_of_incident": {
            "title": "Face Sheet",
            "subtitle": null
        },

        "id_document_forwarded_to": {
            "title": "Logistics",
            "subtitle": null
        },

        "id_other_support1_name": {
            "title": "Other Support Primary",
            "subtitle": null
        },

        "id_other_support2_name": {
            "title": "Other Support Secondary",
            "subtitle": null
        },

        "id_child_protection_notified": {
            "title": "Mandated Reporting",
            "subtitle": "Submission of report does not meet this expectation, direct contact with Access is required"
        },

        "id_was_interviewed": {
            "title": "Assessment",
            "subtitle": "Document clearly who provided the information below"
        },

        "id_cs_scale_wish_dead": {
            "title": "Columbia-Suicide Severity Rating Scale",
            "subtitle": "Ask Questions 1 &2 address context of responses in the narrative"
        },

        "id_cs_scale_wish_dead": {
            "title": "Columbia-Suicide Severity Rating Scale",
            "subtitle": "Ask Questions 1 &2 address context of responses in the narrative"
        },

        "id_cs_scale_how_kill": {
            "title": "Address context of responses in the narrative",
            "subtitle": "If YES to 2, ask questions 3, 4, 5 and 6.  If NO to 2, go directly to question 6"
        },

        "id_orientation_person": {
            "title": "Mental Status - Orientation",
            "subtitle": "Any items checked should be addressed in the narrative-Some may be noted as reported"
        },

        "id_speech_rapid": {
            "title": "Mental Status - Speech",
            "subtitle": null
        },

        "id_thought_delusions": {
            "title": "Mental Status - Thought Content/Processes",
            "subtitle": null
        },

        "id_mood_depressed": {
            "title": "Mental Status - Mood",
            "subtitle": null
        },

        "id_behave_cooperative": {
            "title": "Mental Status - Behavior",
            "subtitle": null
        },

        "id_intel_below_avg": {
            "title": "Mental Status - Intellectual Functioning",
            "subtitle": null
        },

        "id_insight_good": {
            "title": "Mental Status - Insight into Situation",
            "subtitle": null
        },

        "id_initial_contact_concerns": {
            "title": "Summary of Assessment",
            "subtitle": null
        },

        "id_initial_contact_concerns": {
            "title": "Summary of Assessment",
            "subtitle": null
        },

        "id_rp_risk_factors": {
            "title": "Response Plan",
            "subtitle": "Outline the risk and protective factors identified through your discussions above and how you utilized them to assist in the decision of your outcome and response plan."
        },

        "id_rp_officers_name": {
            "title": null,
            "subtitle": "Authorization for emergency detention provided to"
        },

        "id_rp_outcome": {
            "title": null,
            "subtitle": "Response Plan Associated with Outcome"
        },

        "id_rp_secure_fireams": {
            "title": null,
            "subtitle": "Additional Items Addressed in Response Plan"
        }
    },

    "CRISIS_ALERT": {

        "id_date_initiated": {
            "title": "Face Sheet",
            "subtitle": null
        },

        "id_caution_firearms": {
            "title": "Known cautions",
            "subtitle": null
        },

        "id_verbal": {
            "title": "Communication",
            "subtitle": null
        },

        "id_reason_for_alert": {
            "title": "Crisis Alert Information",
            "subtitle": null
        },

        "id_contact_name": {
            "title": "Critical Support Contacts"
        },

        "id_diag_formed_by": {
            "title": "Diagnostic Impression/Past Emergency Mental Health Services/Medical",
            "subtitle": null
        },

        "id_mh_diag_needs": {
            "title": "Mental Health & Physical Health"
        },

        "id_past_emh_services": {
            "title": "Past Emergency Mental Health Services"
        },

        "id_ch51_comit": {
            "title": "Legal Status",
            "subtitle": null
        },

        "id_ccs": {
            "title": "Other Program Affiliation"
        },

        "id_supporting_docs": {
            "title": "Additional Documentation",
            "subtitle": null
        },

        "finalize_form": {
            "title": "Finalize",
            "subtitle": null
        }
    },

    "CRISIS_FOLLOWUP": {
        "id_date": {
            "title": "Service Summary",
            "subtitle": null
        },

        "id_provide_evaulation": {
            "title": "Follow Up Intervention(s) Provided",
            "subtitle": null
        },

        "id_provided_info": {
            "title": null,
            "subtitle": "Provide evaluation, information, and referral to client or others involved"
        },

        "id_followup_info": {
            "title": null,
            "subtitle": "Determine whether any follow up contacts by program staff or linkages with other providers are necessary"
        },

        "id_fui_client_phone": {
            "title": null,
            "subtitle": "Follow up contact to ensure that the intervention plans are carried out and meeting the client’s needs"
        },

        "id_fua_client": {
            "title": null,
            "subtitle": "Follow up contacts until the client has begun to receive assistance from ongoing service provider"
        },

        "id_contact_made": {
            "title": "Linkage Provided",
            "subtitle": "Ongoing provider, County of Residence, Probation, Community Services, Inpatient Unit, MCO,  family, other support"
        },

        "id_closed": {
            "title": "Crisis Services Closure Reason",
            "subtitle": null
        },

        "id_crisis_plan_on_file": {
            "title": "Staff Actions",
            "subtitle": null
        },

        "id_service_detail": {
            "title": "Service Summary",
            "subtitle": null
        },

        "id_linked_docs": {
            "title": "Linked Documents",
            "subtitle": null
        },

        "finalize_form": {
            "title": "Finalize",
            "subtitle": null
        }


    },

    "CRISIS_PLAN": {
        "id_date": {
            "title": "Service Summary",
            "subtitle": null
        },

        "id_date_plan_initiated": {
            "title": "Face Sheet",
            "subtitle": null
        },

        "id_caution_firearms": {
            "title": null,
            "subtitle": "Known cautions"
        },

        "id_verbal": {
            "title": null,
            "subtitle": "Communication"
        },

        "id_strengths": {
            "title": "Crisis Plan Information",
            "subtitle": null
        },

        "id_contact_name": {
            "title": "Critical Support Contacts",
            "subtitle": "Important people in the person's life that may help develop a rapport and respond appropriately, etc."
        },

        "id_daily_schedule": {
            "title": "Usual Daily Schedule",
            "subtitle": "Consider work, school, and social activities, regularly scheduled appointments, wake/sleep times, etc."
        },

        "id_diagnosis1": {
            "title": "Diagnostic Impression/Past Emergency Mental Health Services/Medical",
            "subtitle": null
        },

        "id_psych": {
            "title": "Providers"
        },

        "id_ch51_comit": {
            "title": "Legal Status",
            "subtitle": null
        },

        "id_ccs": {
            "title": "Other Program Affiliation",
            "subtitle": null
        },

        "id_consumer_signature": {
            "title": "Signatures",
            "subtitle": null
        },

        "id_linked_docs": {
            "title": "Linked Documents",
            "subtitle": null
        },

        "finalize_form": {
            "title": "Finalize",
            "subtitle": null
        }
    },

    "RESPONSE_PLAN_REVIEW": {
        "finalize_form": {
            "title": "Finalize",
            "subtitle": null
        }
    },



    "RANDI_INTAKE": {
        "id_date": {
            "title": "Service Summary",
            "subtitle": null
        },

        "id_info_from": {
            "title": "Source of Intake Information",
            "subtitle": null
        },

        "id_diagnosis1": {
            "title": "Diagnosis Information",
            "subtitle": null
        },

        "id_treat_ccs": {
            "title": "Current and Past Mental Health/Substance Use Treatment",
            "subtitle": null
        },

        "id_mh_aggression": {
            "title": "Mental Health",
            "subtitle": null
        },

        "id_sa_none_reported": {
            "title": "Substance Use",
            "subtitle": null
        },

        "id_pn_behavior_support": {
            "title": "Perceived Needs of Client",
            "subtitle": null
        },

        "id_pregnant": {
            "title": "Pregnancy Status",
            "subtitle": null
        },

        "id_living_situation": {
            "title": "Living Situation",
            "subtitle": null
        },

        "id_op_probation": {
            "title": "Other Program Affiliation",
            "subtitle": null
        },

        "id_linked_docs": {
            "title": "Linked Documents",
            "subtitle": null
        },

        "finalize_form": {
            "title": "Finalize",
            "subtitle": null
        }

    },




    "RANDI_REFERRAL": {
        "id_refto_op_bh": {
            "title": "Referring to",
            "subtitle": null,
            "hideFromIndex": true
        },

        "finalize_form": {
            "title": "Finalize",
            "subtitle": null,
            "hideFromIndex": true
        }
    },


    "RANDI_EXTERNAL_REFERRAL": {
        "finalize_form": {
            "title": "Finalize",
            "subtitle": null
        }
    },

    "RANDI_REFERRAL_REPORT": {
        "id_requested_clts": {
            "title": "Services Requested - What referral is for",
            "subtitle": "Programs"
        },

        "id_requested_mh": {
            "title": null,
            "subtitle": "Clinic"
        }
    },

    "TCM_ASSESSMENT": {
        "id_date": {
            "title": "Assessment Description and Background Information"
        },
        "id_living_arr": {
            "title": "Living Arrangements"
        },
        "id_mental_health": {
            "title": "Mental Health"
        },
        "id_phys_diags": {
            "title": "Medical and Physical"
        },
        "id_diags": {
            "title": "Substance Use History"
        },
        "id_current_rel_stat": {
            "title": "Social Relationships and Supports"
        },
        "id_cjs_involvement": {
            "title": "Legal History"
        },
        "id_voc_edu_status": {
            "title": "Skills and Employment"
        },
        "id_linked_docs": {
            "title": "Linked Documents",
            "subtitle": null
        },
        "finalize_form": {
            "title": "Finalize",
            "subtitle": null
        }
    },

    "TCM_PPS_MH_ADMISSION": {
        "id_client_first_name": {
            "title": "Demographic Information"
        },
        "id_county_of_residence": {
            "title": "Admission Information"
        },
        "finalize_form": {
            "title": "Finalize",
            "subtitle": null
        }
    },

    "TCM_PPS_MH_DISCHARGE": {
        "id_client_first_name": {
            "title": "Demographic Information"
        },
        "id_end_date": {
            "title": "Discharge Information"
        },
        "finalize_form": {
            "title": "Finalize",
            "subtitle": null
        }
    },

    "TCM_PPS_AODA_ADMISSION": {
        "id_client_first_name": {
            "title": "Demographic Information"
        },
        "id_county_of_residence": {
            "title": "Admission Information"
        },
        "finalize_form": {
            "title": "Finalize",
            "subtitle": null
        }
    },

    "TCM_PPS_AODA_DISCHARGE": {
        "id_client_first_name": {
            "title": "Demographic Information"
        },
        "id_close_use_freq": {
            "title": "Discharge Information"
        },
        "finalize_form": {
            "title": "Finalize",
            "subtitle": null
        }
    },

    "CST_PPS_MH_ADMISSION": {
        "id_client_first_name": {
            "title": "Demographic Information"
        },

        "id_service": {
            "title": "Agency and Service Information"
        },

        "id_commit_stat": {
            "title": "Consumer Status Report"
        },

        "id_cjs_none": {
            "title": null,
            "subtitle": "Criminal Justice System Involvement (select up to four with in the last six months)"
        },

        "finalize_form": {
            "title": "Finalize",
            "subtitle": null
        }
    },

    "CST_PPS_MH_DISCHARGE": {
        "id_client_first_name": {
            "title": "Demographic Information"
        },

        "id_commit_stat": {
            "title": "Consumer Status Report"
        },

        "id_cjs_none": {
            "title": null,
            "subtitle": "Criminal Justice System Involvement (select up to four with in the last six months)"
        },

        "id_end_date": {
            "title": "PPS Closing Information"
        },

        "finalize_form": {
            "title": "Finalize",
            "subtitle": null
        }
    },


    "USERCONFIG": {
        "id_fiscal_year": {
            "title": "Fiscal"
        },

        "id_full_name": {
            "title": "Your information"
        },

        "id_login_url": {
            "title": "Your settings"
        },

        "id_email_on_new_episode": {
            "title": "Email Alerts",
            "subtitle": "On episode create"
        },

        "id_email_on_closing_episode": {
            "title": null,
            "subtitle": "On episode closing"
        },

        "id_notify_on_new_episode": {
            "title": "Notifications in Nova",
            "subtitle": "On episode create"
        },
        "id_notify_on_closing_episode": {
            "title": "Notifications in Nova",
            "subtitle": "On episode closing"
        }


    }
}